EMP_001,YOUR_EEID,POS_CODE,POS_TITLE,OLD_POSCODE,OLD_POSTITLE,EMP_010,LIBSPEC_FLAG1,YOUR_TITLE,YOUR_CODE,YOUR_LEVEL,YOUR_GRADE,YOUR_OTHER,EMP_026,POS_CLASS,EMP_030,EMP_031,EMP_033,EMP_036,EMP_037,EMP_038,EMP_039,EMP_042,EMP_044,EMP_047,EMP_048,EMP_076,EMP_080,EMP_083,EMP_103,EMP_104,EMP_124,EMP_125,EMP_128,EMP_129,EMP_131,EMP_140,EMP_172,EMP_179,EMP_185,EMP_198,EMP_217,EMP_221,EMP_233,EMP_234,EMP_235,EMP_236,EMP_238,EMP_240,EMP_242,EMP_244,EMP_247,EMP_250,EMP_256,EMP_259,EMP_271,EMP_278,EMP_280,EMP_281,EMP_282,EMP_283,EMP_284,EMP_285,EMP_286,EMP_287,EMP_288,EMP_289,EMP_300,EMP_301,EMP_306,EMP_324,EMP_326,EMP_329,EMP_335,EMP_379,EMP_387,EMP_388,EMP_390,EMP_391,EMP_392,EMP_394,EMP_397,EMP_400,EMP_404,EMP_420,EMP_405,SYSTEM_EXCLUDE_EMPLOYEE,CLIENT_EXCLUDE_EMPLOYEE
Entity name ,Employee Identifier,Mercer Benchmark Code,Mercer Position Title,Previous Year MUPCS Code (for reference only),Previous Year MUPCS Title (for reference only),Therapeutic Area Flag,"Mercer Job Library Specialty Flags 
Level 1 (Applicable for certain jobs only)",Organization Job Title,Organization Job Code,Organization Job Level,Organization Job Grade,Organization Job ID - Other,Organization's  Reports to Position Title,"IPE Position Class (current year) (if you do not have an IPE license, please leave blank)","Organization IPE Size (if you do not have an IPE license, please leave blank)",Revenue for business in which role sits,Number of Employees for Business in Which Role Sits,Geographic Scope of Role,Year of Birth,Employee Year of Hire,Year Entered Into Position,Has this incumbent changed role from last year?,Gender,"Region (State, City) job is located",Country Role Located,Employment Category (Dirigenti/Quadri/Impiegati/Operai),Member of Board or Executive Committee,Level of incumbent in Organization,Type of Store Managed ,Store Size (for Store Positions only)  ,Employee salary currency,Monthly Base Salary (Equivalent to Full Time Employment),Number of Months Paid,Annual Base Salary (Equivalent to Full Time Employment),Annual Base Salary for Previous Year,Board Member Indemnity,Meal or Luncheon Voucher Allowance,Non-Competition Agreement Amount,Other Annual Guaranteed Allowance,Production Premium Amount (fixed),Shift Allowance Amount,Transportation Allowance,Short-term Incentive (Variable Bonus) Eligibility,Short-term Incentive (Variable Bonus) (Actual),Short Term Incentive over 2017 on 2016 performance (Actual),Short-term Incentive (Target) as Percentage of Base Salary,Short-term Incentive (Maximum) as Percentage of Base,Sales Incentive Eligibility,Sales Incentive Annual Amount (Actual),Sales Incentive (Target) as Percentage of Base,Sales Incentive (Maximum) as Percentage of Base,Other Short-term Incentive (Actual),"Annual ""Una Tantum""","Annual ""Participation Premium"" (paid in addition to STI)",Do you defer part of the bonus?,Long-term Incentive Eligible,LTI Plan Award #1. Organization LTI Plan Identifier (identifiers provided on the LTI Plans section),Number of Granted Options/Shares/Performance Units or value of Granted Cash Award,LTI Plan Award #2. Organization LTI Plan Identifier (identifiers provided on the LTI Plans section),Number of granted Options/ Shares/ Performance Units or value of granted Cash Award,LTI Plan Award #3. Organization LTI Plan Identifier (identifiers provided on the LTI Plans section),Number of granted Options/ Shares/ Performance Units or value of granted Cash Award,LTI Plan Award #4. Organization LTI Plan Identifier (identifiers provided on the LTI Plans section),Number of granted Options/ Shares/ Performance Units or value of granted Cash Award,LTI Plan Award #5. Organization LTI Plan Identifier (identifiers provided on the LTI Plans section),Number of granted Options/ Shares/ Performance Units or value of granted Cash Award,DB Scheme Membership,Pension Plan: DC Scheme Membership,Is the bonus payment pensionable?,Long-term Disability Plan Eligibility,Life Insurance Plan Eligibility,Other Benefit Values  (MERG only),Medical Plan Eligibility,Type of Company Car Benefit,Annual Allowance in Lieu of a Company Car,Replacement Term (in years),Car Manufacturer,Car Model/APAC: Motor Vehicle Manufacturer and Model,Other car details/ Motor Vehicle Engine Capacity (In c.c.),List Price,Annual Lease Cost (incl. VAT),Annual Reimbursement for Private Use,Fuel for private use paid by organization (%),Fuel Card Eligibility,Fuel Cash Allowance Value (Annual),System exclude employee,Client exclude employee
,1434567891,,,,,,,software engineer,,,,,,,,,,,1977,1976,,,,,,,,,,,,,,,,,,,,,,,Yes,,,,,,,,,,,,,,,,,,,,,,,,,,,,,,,,,,,,,,,,,,,,
,1434567892,,,,,,,hardware enginner,,,,,,,,,,,2000,2001,,,,,,,,,,,,,,,,,,,,,,,Yes,1,1,,,,,,,,,,,,,,,,,,,,,,,,,,,,,,,,,,,,,,,,,,
,1434567893,,,,,,,designer,,,,,,,,,,,1950,1949,,,,,,,,,,,,,,,,,,,,,,,No,1,,,,,,,,,,,,,,,,,,,,,,,,,,,,,,,,,,,,,,,,,,,
,1434567894,,,,,,,facilities manager,,,,,,,,,,,2001,2020,,,,,,,,,,,,,,,,,,,,,,,No,,,,,,,,,,,,,,,,,,,,,,,,,,,,,,,,,,,,,,,,,,,,
