{
  "entities": [
    {
      "otherSectionsData": {
      
      },
      "contextData": {
        "campaignId": "597b474bfe305700157895c0",
        "companyId": "59f3f4bcdef27d0015f853db",
        "orgSize": null,
        "companyName": "PBCompany2",
        "ctryCode": "CA",
        "sectionId": "EMP_DATA",
        "grpCode": "",
        "cpyCode": "",
        "uniqueIdColumnCode": "YOUR_EEID",
        "industry": {
          "superSector": "CH",
          "sector": "211",
          "subSector": "2650"
        }
      },
      "sectionStructure": {
        "columns": [
		{
            "code": "YOUR_EEID",
            "dataType": "string",
            "questionType": "text",
            "validations": [
              {
                "parameter": "",
                "expression": "ISBLANK(this.YOUR_EEID);",
                "errorType": "ERROR",
                "validationType": "expression",
                "_id": "59f1c151f21d8400151f510e",
                "category": "input_data",
                "dependentColumns": []
              }
            ]
          },
          {
            "code": "EMP_233",
            "dataType": "string",
            "questionType": "dropdown",
            "validations": [
              {
                "validationType": "eligibility",
                "_id": "5a058e356462600015da0b77",
                "category": "input_data",
                "dependentColumns": [
                  "EMP_234",
                  "EMP_235",
                  "EMP_236",
                  "EMP_237",
                  "EMP_238",
                  "EMP_239",
                  "EMP_258"
                ]
              },
              {
                "parameter": "",
                "expression": "this.EMP_233 == \"Y\" AND this.EMP_240 == \"Y\";",
                "errorType": "ALERT",
                "validationType": "expression",
                "_id": "5a37cfc6db3b970016150fd4",
                "category": "input_data",
                "dependentColumns": []
              }
            ],
            "options": {
              "items": [
                {
                  "value": "Y",
                  "displayName": "Yes"
                },
                {
                  "value": "N",
                  "displayName": "No"
                },
                {
                  "value": "NA",
                  "displayName": "Not applicable"
                }
              ]
            }
          },
          {
            "code": "EMP_234",
            "dataType": "double",
            "questionType": "double",
            "validations": [
              {
                "parameter": "",
                "expression": "r1=0;\nvalue1 = 100*(this.EMP_234 / this.EMP_129);\nr2=0;\nIF(SUBSTR(this.POS_CODE,12,1)==\"E\") \n{r2=125;} \nELSE \n {IF(SUBSTR(this.POS_CODE,12,1)== \"M\" OR SUBSTR(this.POS_CODE,12,1) == \"I\" ) \n {r2=50;} \n  ELSE \n {r2=40;} \n} \nr2;\nvalue2=r2;\n\nIF(ISBLANK(this.EMP_234) OR ISBLANK(this.EMP_129) OR ISBLANK(this.POS_CODE)) \n{r1=false;}\nELSE\n {IF(value1>value2)\n {r1=true;}\n ELSE\n {r1=false;} \n}\nr1;",
                "errorType": "ALERT",
                "validationType": "expression",
                "_id": "5a0432b323212300164a48b7",
                "category": "input_data",
                "dependentColumns": []
              },
              {
                "_id": "5a04334823212300164a48b8",
                "validationType": "expression",
                "errorType": "ALERT",
                "expression": "r1=0;\nvalue1 = 100*(this.EMP_234 / this.EMP_129);\nr2=0;\nIF(SUBSTR(this.POS_CODE,12,1)==\"E\") \n{r2=4;} \nELSE \n {IF(SUBSTR(this.POS_CODE,12,1)== \"M\" OR SUBSTR(this.POS_CODE,12,1) == \"I\" ) \n {r2=2;} \n  ELSE \n {r2=1;} \n} \nr2;\nvalue2=r2;\n\nIF(ISBLANK(this.EMP_234) OR ISBLANK(this.EMP_129) OR ISBLANK(this.POS_CODE)) \n{r1=false;}\nELSE\n {IF(value1>=0.3 and value1<value2)\n {r1=true;}\n ELSE\n {r1=false;} \n}\nr1;",
                "parameter": "",
                "category": "input_data",
                "dependentColumns": []
              },
              {
                "parameter": "",
                "expression": "(this.EMP_234 == this.EMP_242) OR (this.EMP_234 > 0 AND this.EMP_242 > 0);",
                "errorType": "ALERT",
                "validationType": "expression",
                "_id": "5a33e16769693a0015a753c4",
                "category": "input_data",
                "dependentColumns": []
              }
            ]
          },
          {
            "code": "EMP_235",
            "dataType": "double",
            "questionType": "double",
            "validations": [
              {
                "parameter": "",
                "expression": "result = 100 * (this.EMP_235 / this.EMP_131);\nCAREER_STREAM = SUBSTR( this.POS_CODE,12,1); \n\nIF(CAREER_STREAM == \"E\")\n{ VALUE = 125; } \nELSE IF(CAREER_STREAM== \"M\")\n{ VALUE = 50; } \nELSE { VALUE = 40; }\n\nthis.EMP_235 != 0 AND result  > VALUE;",
                "errorType": "ALERT",
                "validationType": "expression",
                "_id": "5a05bb986462600015da0b8b",
                "category": "input_data",
                "dependentColumns": []
              },
              {
                "parameter": "",
                "expression": "this.EMP_240 == \"Yes\" AND this.EMP_235 == this.EMP_242;",
                "errorType": "ALERT",
                "validationType": "expression",
                "_id": "5a38cb3b868f7500168f2201",
                "category": "input_data",
                "dependentColumns": []
              }
            ]
          },
          {
            "code": "EMP_236",
            "dataType": "double",
            "questionType": "percentage",
            "validations": [
              {
                "_id": "5a097c1c60e31c00142a91a4",
                "validationType": "expression",
                "errorType": "ALERT",
                "expression": "this.EMP_236 == this.EMP_244;",
                "parameter": "",
                "category": "input_data",
                "dependentColumns": []
              },
              {
                "parameter": "",
                "expression": "CAREER_STREAM = SUBSTR( this.POS_CODE,12,1); \n\nIF(CAREER_STREAM == \"E\")\n{ VALUE = 125; } \nELSE IF(CAREER_STREAM== \"M\")\n{ VALUE = 50; } \nELSE { VALUE = 40; }\n\nthis.EMP_236 > VALUE;",
                "errorType": "ALERT",
                "validationType": "expression",
                "_id": "5a33e1a669693a0015a753c6",
                "category": "input_data",
                "dependentColumns": []
              }
            ]
          },
          {
            "code": "EMP_238",
            "dataType": "double",
            "questionType": "percentage",
            "validations": [
              {
                "parameter": "",
                "expression": "r1=0;\nvalue1 = 100*(this.EMP_234 / this.EMP_129);\nvalue2 = 1.1 * this.EMP_238;\n\nIF(ISBLANK(this.EMP_234) OR ISBLANK(this.EMP_238) OR ISBLANK(this.EMP_129)) \n{r1=false;}\nELSE\n{IF(value1>value2)\n{r1=true;}\nELSE\n{r1=false;}}\nr1;",
                "errorType": "ALERT",
                "validationType": "expression",
                "_id": "5a04264f23212300164a48b0",
                "category": "input_data",
                "dependentColumns": []
              },
              {
                "_id": "5a33e24369693a0015a753c7",
                "validationType": "expression",
                "errorType": "ALERT",
                "expression": "CAREER_STREAM = SUBSTR( this.POS_CODE,12,1); \n\nIF(CAREER_STREAM == \"E\")\n{ VALUE = 250; } \nELSE IF(CAREER_STREAM== \"M\")\n{ VALUE = 100; } \nELSE { VALUE = 80; }\n\nthis.EMP_238 > VALUE;",
                "parameter": "",
                "category": "input_data",
                "dependentColumns": []
              }
            ]
          },
		  {
            "code": "EXP_SALINFLATION",
            "dataType": "double",
            "questionType": "double",
            "validations": [
              {
                "_id": "5a27e05434fee900156c23a6",
                "validationType": "expression",
                "errorType": "AUTOCORRECT",
                "expression": "LOOK_UP_CHECK(\"COUNTRY\",\"CTX_CTRY_CODE = contextData.ctryCode\",\"AGE_HIRE_MIN\");",
                "parameter": "",
                "category": "input_data",
                "dependentColumns": []
              }
            ]
          }
		
        ]
      }
    }
  ]
}