timeStamp,elapsed,label,responseCode,threadName,success,bytes,grpThreads,allThreads,Latency,SampleCount,ErrorCount,Hostname,Connect
1516194812311,5173,FileUpload F1_PE-8157,500,Thread Group_Prod1 1-1,false,361,1,1,5172,1,1,INFPU07042,532
1516194817591,1140,FileUpload F1_PE-8110_ErrorCell,200,Thread Group_Prod1 1-1,true,1547,1,1,1139,1,0,INFPU07042,258
1516194818750,3546,FileUpload F2_PE-8110_ErrorCell_Ignore,422,Thread Group_Prod1 1-1,false,651327,1,1,1927,1,1,INFPU07042,0
1516194822368,2504,FileUpload F3_PE-8110_ErrorCell_Ignore,400,Thread Group_Prod1 1-1,false,380,1,1,2503,1,1,INFPU07042,260
1516194824882,822,FileUpload F4_PE-5678_SequentialWithOtherValidations,200,Thread Group_Prod1 1-1,true,5447,1,1,820,1,0,INFPU07042,247
1516194825727,290,NoFileUpload N1_PE-5678_LOOK_UP_CHECK1,200,Thread Group_Prod1 1-1,true,1063,1,1,289,1,0,INFPU07042,0
1516194826030,257,NoFileUpload N1_PE-5678_SequentialWithOtherValidations,200,Thread Group_Prod1 1-1,true,982,1,1,256,1,0,INFPU07042,0
1516194826307,256,NoFileUpload N2_PE-5678_SequentialWithOtherValidations,200,Thread Group_Prod1 1-1,true,951,1,1,255,1,0,INFPU07042,0
1516194826590,832,"NoFileUpload_Null Validation_crossSectionChecks_LPALL_566 is """"",200,Thread Group_Prod1 1-1,true,6831,1,1,830,1,0,INFPU07042,0
1516194827435,1823,NoFileUpload_Null Validation_crossSectionChecks_LPALL_566 is null,200,Thread Group_Prod1 1-1,true,6828,1,1,1823,1,0,INFPU07042,245
1516194829271,329,"NoFileUpload_Null Validation_crossSectionChecks_LPALL_566 is ""null""",200,Thread Group_Prod1 1-1,true,6971,1,1,326,1,0,INFPU07042,0
1516194829614,1866,"NoFileUpload_Null Validation_crossSectionChecks_LPALL_566 is ""   """,200,Thread Group_Prod1 1-1,true,6834,1,1,1864,1,0,INFPU07042,253
1516194831494,267,NoFileUpload N3_PE-7172MDA,200,Thread Group_Prod1 1-1,true,650,1,1,267,1,0,INFPU07042,0
1516194831784,931,FileUpload F5_PE7172,200,Thread Group_Prod1 1-1,false,5016,1,1,928,1,1,INFPU07042,258
1516194832812,523,NoFileUpload N4_PE-8032MDA,200,Thread Group_Prod1 1-1,true,650,1,1,523,1,0,INFPU07042,0
1516194833356,884,NoFileUpload N5_PE-8070,200,Thread Group_Prod1 1-1,true,873,1,1,882,1,0,INFPU07042,0
1516194834252,1244,NoFileUpload N73_PE5668 T2,500,Thread Group_Prod1 1-1,false,404,1,1,1243,1,1,INFPU07042,250
1516194835507,1226,NoFileUpload N74_PE5668 T3,200,Thread Group_Prod1 1-1,false,711,1,1,1226,1,1,INFPU07042,245
1516194836743,251,NoFileUpload N75_PE5668 T4,200,Thread Group_Prod1 1-1,false,660,1,1,250,1,1,INFPU07042,0
1516194837004,254,NoFileUpload N76_PE5668 T5,500,Thread Group_Prod1 1-1,false,404,1,1,253,1,1,INFPU07042,0
1516194837269,1250,NoFileUpload N77_PE5668 T6,500,Thread Group_Prod1 1-1,false,404,1,1,1249,1,1,INFPU07042,249
1516194838529,1255,NoFileUpload N78_PE5668 T7,200,Thread Group_Prod1 1-1,false,661,1,1,1254,1,1,INFPU07042,250
1516194839794,257,NoFileUpload N79_PE5668 T8,200,Thread Group_Prod1 1-1,false,566,1,1,256,1,1,INFPU07042,0
1516194840076,1743,FileUpload F6_PE-7257_US_CSV,200,Thread Group_Prod1 1-1,false,6056,1,1,1741,1,1,INFPU07042,0
1516194841893,2529,FileUpload F7_PE-7257_US_Excel,200,Thread Group_Prod1 1-1,true,6233,1,1,2527,1,0,INFPU07042,251
1516194844489,2271,NoFileUpload N6_PE7978,200,Thread Group_Prod1 1-1,true,6700,1,1,2269,1,0,INFPU07042,699
1516194846773,777,NoFileUpload N7_PE7954,200,Thread Group_Prod1 1-1,true,713,1,1,777,1,0,INFPU07042,258
1516194847560,337,FileUpload F8_PE7999_Ignore since files are identical,422,Thread Group_Prod1 1-1,false,1258,1,1,336,1,1,INFPU07042,0
1516194847908,552,NoFileUpload N8_ PE7795,500,Thread Group_Prod1 1-1,false,404,1,1,552,1,1,INFPU07042,0
1516194848477,848,NoFileUpload N9_PE7046_AU_Comp2,200,Thread Group_Prod1 1-1,true,901,1,1,848,1,0,INFPU07042,254
1516194849336,310,NoFileUpload N10_PE7046_US_Comp1,200,Thread Group_Prod1 1-1,true,897,1,1,310,1,0,INFPU07042,0
1516194849657,287,NoFileUpload N11_PE7046_IN_Comp1,200,Thread Group_Prod1 1-1,true,898,1,1,286,1,0,INFPU07042,0
1516194849956,277,NoFileUpload N12_PE7046_ZA_Comp2,200,Thread Group_Prod1 1-1,true,901,1,1,276,1,0,INFPU07042,0
1516194850243,818,NoFileUpload N13_PE7773_NUM_EMP is 7,200,Thread Group_Prod1 1-1,true,1192,1,1,818,1,0,INFPU07042,0
1516194851086,1602,NoFileUpload N14_PE7773_NUM_EMP is 8.1_boundry is 8,200,Thread Group_Prod1 1-1,true,1093,1,1,1601,1,0,INFPU07042,255
1516194852700,343,NoFileUpload N15_PE7773_NUM_EMP is 9_boundry is 8,200,Thread Group_Prod1 1-1,true,1092,1,1,342,1,0,INFPU07042,0
1516194853058,367,FileUpload F9_PE5216_ImpactedbyComment,200,Thread Group_Prod1 1-1,false,1318,1,1,366,1,1,INFPU07042,0
1516194853467,767,NoFileUpload N16_PE7044_expression,200,Thread Group_Prod1 1-1,true,516,1,1,766,1,0,INFPU07042,254
1516194854234,514,NoFileUpload N17_PE7044_range,200,Thread Group_Prod1 1-1,true,934,1,1,513,1,0,INFPU07042,0
1516194854796,291,NoFileUpload N18_PE7044_rangeValidationRefTable,200,Thread Group_Prod1 1-1,true,922,1,1,291,1,0,INFPU07042,0
1516194855111,278,NoFileUpload N19_PE7044_rangeValidationRefTable_dimensions,200,Thread Group_Prod1 1-1,true,963,1,1,278,1,0,INFPU07042,0
1516194855432,1671,FileUpload F10_PE5691_1Record_Ignore,500,Thread Group_Prod1 1-1,false,400,1,1,1671,1,1,INFPU07042,0
1516194857115,2237,FileUpload F11_PE5691_1Record_Ignore,500,Thread Group_Prod1 1-1,false,400,1,1,2237,1,1,INFPU07042,245
1516194859363,1020,FileUpload F12_PE6027_Ref Table,200,Thread Group_Prod1 1-1,true,2169,1,1,1019,1,0,INFPU07042,244
1516194860415,573,FileUpload F13_PE6030,200,Thread Group_Prod1 1-1,true,3265,1,1,571,1,0,INFPU07042,0
1516194861036,264,NoFileUpload N20_PE7033,200,Thread Group_Prod1 1-1,true,897,1,1,264,1,0,INFPU07042,0
1516194861300,251,NoFileUpload N21_PE7314,200,Thread Group_Prod1 1-1,true,531,1,1,250,1,0,INFPU07042,0
1516194861576,2244,FileUpload F14_PE7071_1Record,200,Thread Group_Prod1 1-1,false,5155,1,1,2242,1,1,INFPU07042,257
1516194863831,2196,FileUpload F15_PE7071_1Record,200,Thread Group_Prod1 1-1,true,5152,1,1,2194,1,0,INFPU07042,254
1516194866054,1888,FileUpload F16_PE7071_1Record,200,Thread Group_Prod1 1-1,true,5754,1,1,1885,1,0,INFPU07042,250
1516194867955,1346,FileUpload F17_PE7071_1Record,200,Thread Group_Prod1 1-1,true,3942,1,1,1345,1,0,INFPU07042,0
1516194869313,2762,FileUpload F18_PE7611,200,Thread Group_Prod1 1-1,false,1179,1,1,2761,1,1,INFPU07042,253
1516194872085,2412,FileUpload F19_PE7611,200,Thread Group_Prod1 1-1,true,1260,1,1,2411,1,0,INFPU07042,250
1516194874510,2643,FileUpload F20_PE7611,200,Thread Group_Prod1 1-1,true,1157,1,1,2643,1,0,INFPU07042,245
1516194877163,3145,FileUpload F21_PE7611,200,Thread Group_Prod1 1-1,true,1179,1,1,3144,1,0,INFPU07042,708
1516194880322,2400,FileUpload F22_PE7611,200,Thread Group_Prod1 1-1,true,1642,1,1,2400,1,0,INFPU07042,244
1516194882733,2729,FileUpload F23_PE7611,200,Thread Group_Prod1 1-1,true,1586,1,1,2728,1,0,INFPU07042,258
1516194885473,2471,FileUpload F24_PE7611,200,Thread Group_Prod1 1-1,true,1586,1,1,2470,1,0,INFPU07042,257
1516194887953,2692,FileUpload F25_PE7611,200,Thread Group_Prod1 1-1,true,1756,1,1,2691,1,0,INFPU07042,245
1516194890655,2480,FileUpload F26_PE7611,200,Thread Group_Prod1 1-1,true,1634,1,1,2479,1,0,INFPU07042,253
1516194893145,2832,FileUpload F27_PE7611,200,Thread Group_Prod1 1-1,true,1363,1,1,2831,1,0,INFPU07042,261
1516194895991,864,FileUpload F28_6713CSV_SkipLastBlankRow,200,Thread Group_Prod1 1-1,true,1728,1,1,863,1,0,INFPU07042,303
1516194896855,281,FileUpload F29_6713CSV_SkipInitialRow,200,Thread Group_Prod1 1-1,true,1437,1,1,281,1,0,INFPU07042,0
1516194897153,283,FileUpload F30_6713CSV_SkipMiddleBlankRows,200,Thread Group_Prod1 1-1,true,2031,1,1,282,1,0,INFPU07042,0
1516194897445,547,FileUpload F31_6713Excel_SkipInitialRow,200,Thread Group_Prod1 1-1,true,1437,1,1,547,1,0,INFPU07042,0
1516194898027,554,FileUpload F32_6713Excel_SkipLastBlankRow,200,Thread Group_Prod1 1-1,true,1728,1,1,554,1,0,INFPU07042,0
1516194898615,1088,FileUpload F33_6713Excel_SkipMiddleRow,200,Thread Group_Prod1 1-1,true,2031,1,1,1087,1,0,INFPU07042,257
1516194899743,260,NoFileUpload N22_PE7631_metaData,200,Thread Group_Prod1 1-1,true,590,1,1,259,1,0,INFPU07042,0
1516194900064,259,NoFileUpload N23_PE7631_metaData,200,Thread Group_Prod1 1-1,true,590,1,1,258,1,0,INFPU07042,0
1516194900337,259,NoFileUpload N24_PE7631_Autocorrect,200,Thread Group_Prod1 1-1,true,828,1,1,258,1,0,INFPU07042,0
1516194900607,259,NoFileUpload N25_PE7631,200,Thread Group_Prod1 1-1,true,818,1,1,259,1,0,INFPU07042,0
1516194900899,781,NoFileUpload N26_7045RawJson_NonNumerciData,200,Thread Group_Prod1 1-1,true,838,1,1,781,1,0,INFPU07042,260
1516194901714,267,NoFileUpload N27_7045RawJson_SkipBlankCols,200,Thread Group_Prod1 1-1,true,757,1,1,266,1,0,INFPU07042,0
1516194902004,266,NoFileUpload N28_7045RawJson_SkipNonNumericCols,200,Thread Group_Prod1 1-1,true,661,1,1,266,1,0,INFPU07042,0
1516194902308,263,NoFileUpload N29_7045RawJson_WithDimesion,200,Thread Group_Prod1 1-1,true,845,1,1,263,1,0,INFPU07042,0
1516194902616,265,NoFileUpload N30_7045RawJson_SingleNonBlankValue,200,Thread Group_Prod1 1-1,true,601,1,1,265,1,0,INFPU07042,0
1516194902911,784,NoFileUpload N31_7045RawJson_WithOtherValidation,200,Thread Group_Prod1 1-1,true,895,1,1,784,1,0,INFPU07042,259
1516194903721,299,FileUpload F34_PE7045_7045CSV_SimpleSequentialCheck,200,Thread Group_Prod1 1-1,true,2016,1,1,298,1,0,INFPU07042,0
1516194904042,570,FileUpload F35_PE7045_7045Excel_SimpleSequentialCheck,200,Thread Group_Prod1 1-1,true,2004,1,1,568,1,0,INFPU07042,0
1516194904648,286,FileUpload F36_PE7045_7045CSV_SkipBlankColumn,200,Thread Group_Prod1 1-1,false,1703,1,1,285,1,1,INFPU07042,0
1516194904971,1044,FileUpload F37_PE7045_7045EXCEL_SkipBlankColumn,200,Thread Group_Prod1 1-1,true,2046,1,1,1042,1,0,INFPU07042,251
1516194906051,279,FileUpload F38_PE7045_7045CSV_SkipNonNumericData,200,Thread Group_Prod1 1-1,false,1596,1,1,278,1,1,INFPU07042,0
1516194906358,541,FileUpload F39_PE7045_7045EXCEL_SkipNonNumericData,200,Thread Group_Prod1 1-1,true,2552,1,1,540,1,0,INFPU07042,0
1516194906927,277,NoFileUpload N32_PE7474_Testcase1,200,Thread Group_Prod1 1-1,true,890,1,1,276,1,0,INFPU07042,0
1516194907222,802,NoFileUpload N33_PE7474_Testcase2,200,Thread Group_Prod1 1-1,true,891,1,1,802,1,0,INFPU07042,260
1516194908058,272,NoFileUpload N34_PE7474_Testcase3,200,Thread Group_Prod1 1-1,true,798,1,1,271,1,0,INFPU07042,0
1516194908342,317,NoFileUpload N35_PE7474_Testcase4,200,Thread Group_Prod1 1-1,true,869,1,1,316,1,0,INFPU07042,0
1516194908671,334,NoFileUpload N36_PE7474_Testcase5,200,Thread Group_Prod1 1-1,true,895,1,1,334,1,0,INFPU07042,0
1516194909031,286,NoFileUpload N37_PE7474_Testcase6,200,Thread Group_Prod1 1-1,true,889,1,1,286,1,0,INFPU07042,0
1516194909351,6156,FileUpload F40_PE7474,200,Thread Group_Prod1 1-1,true,4272,1,1,6155,1,0,INFPU07042,654
1516194915521,1039,NoFileUpload N38_PE7689_RefTable,200,Thread Group_Prod1 1-1,true,963,1,1,1038,1,0,INFPU07042,253
1516194918160,1568,NoFileUpload N39_PE7440_ISBLANK_ImpactedbyComment,200,Thread Group_Prod1 1-1,true,1062,1,1,1567,1,0,INFPU07042,262
1516194919752,271,NoFileUpload N40_PE7440_ISNOTBLANK_LENGTH_ImpactedbyComment,200,Thread Group_Prod1 1-1,true,946,1,1,271,1,0,INFPU07042,0
1516194920060,355,FileUpload F41_PE5679_EqualToWithAllBlank_POSCODE=2,200,Thread Group_Prod1 1-1,false,2814,1,1,355,1,1,INFPU07042,0
1516194920436,798,FileUpload F42_PE5679_3 Null string and 1 Blank_POSCODE=2,200,Thread Group_Prod1 1-1,false,3052,1,1,797,1,1,INFPU07042,252
1516194921277,303,FileUpload F43_PE5679_2 Null String and 2 Blank_POSCODE=2,200,Thread Group_Prod1 1-1,true,2847,1,1,302,1,0,INFPU07042,0
1516194921605,364,FileUpload F44_PE5679_1 Null String_1Data_2 Blank_POSCODE=2,200,Thread Group_Prod1 1-1,false,1722,1,1,363,1,1,INFPU07042,0
1516194922013,289,FileUpload F45_PE5679_NoBlanksNoNullAllUnique_POSCODE=2,200,Thread Group_Prod1 1-1,true,3216,1,1,288,1,0,INFPU07042,0
1516194922336,306,FileUpload F46_PE5679_3samedata_1Blank_POSCODE=2,200,Thread Group_Prod1 1-1,false,3043,1,1,305,1,1,INFPU07042,0
1516194922684,761,FileUpload F47_PE5679_POSCODEGreaterThan2,200,Thread Group_Prod1 1-1,false,3221,1,1,760,1,1,INFPU07042,245
1516194923461,317,FileUpload F48_PE5679_POSCODEGreaterThanEqualTo2,200,Thread Group_Prod1 1-1,false,1723,1,1,317,1,1,INFPU07042,0
1516194923791,274,FileUpload F49_PE5679_LessThan,200,Thread Group_Prod1 1-1,false,2847,1,1,273,1,1,INFPU07042,0
1516194924088,289,FileUpload F50_PE5679_LessThanEqualTo1,200,Thread Group_Prod1 1-1,false,2814,1,1,288,1,1,INFPU07042,0
1516194924410,4196,FileUpload F52_PE7724_CSV_ref,200,Thread Group_Prod1 1-1,true,27047,1,1,3946,1,0,INFPU07042,0
1516194928643,5278,FileUpload F52_PE7724_Excel_ref_ImpactedbyComment,200,Thread Group_Prod1 1-1,false,23096,1,1,5020,1,1,INFPU07042,255
1516194933970,2252,FileUpload F53_PE7056_uploadMultipleFile_TBC for strict or loose,200,Thread Group_Prod1 1-1,false,4441,1,1,2249,1,1,INFPU07042,260
1516194936265,760,NoFileUpload N41_PE7056_validateAggregates,200,Thread Group_Prod1 1-1,true,790,1,1,760,1,0,INFPU07042,246
1516194937053,251,NoFileUpload N42_7056_performDefaultActions_Correct as per new code,200,Thread Group_Prod1 1-1,true,515,1,1,251,1,0,INFPU07042,0
1516194937336,519,NoFileUpload N43_7056_crossSectionChecks,200,Thread Group_Prod1 1-1,true,1309,1,1,519,1,0,INFPU07042,0
1516194937880,253,NoFileUpload N44_PE7241_EmailValidation -withInvalidAndValidEmailIdInDimension,200,Thread Group_Prod1 1-1,true,850,1,1,253,1,0,INFPU07042,0
1516194938174,1009,NoFileUpload N45_PE7241_EmailValidation-withAllInvalidEmailIdInDimension,200,Thread Group_Prod1 1-1,true,876,1,1,1009,1,0,INFPU07042,0
1516194939214,766,NoFileUpload N46_PE7241_EmailValidation -withNullStringAndBlankEmailIdInDimension,200,Thread Group_Prod1 1-1,true,845,1,1,766,1,0,INFPU07042,254
1516194940010,258,NoFileUpload N47_PE7241_EmailValidation_withAllBlankEmailIdInDimension,200,Thread Group_Prod1 1-1,true,823,1,1,258,1,0,INFPU07042,0
1516194940286,258,NoFileUpload N48_PE7241_EmailValidation_withAllEmailIdAsNullStringInDimension,200,Thread Group_Prod1 1-1,true,840,1,1,257,1,0,INFPU07042,0
1516194940576,422,NoFileUpload N49_PE7241_EmailValidation_withAllValidEmailIdInDimension,200,Thread Group_Prod1 1-1,true,868,1,1,422,1,0,INFPU07042,0
1516194941016,259,NoFileUpload N50_PE7241_PhoneValidation_withAllBlankPhoneNumberInDimension,200,Thread Group_Prod1 1-1,true,781,1,1,259,1,0,INFPU07042,0
1516194941287,822,NoFileUpload N51_PE7241_PhoneValidation_withAllInvalidPhoneNumberInDimension,200,Thread Group_Prod1 1-1,true,889,1,1,822,1,0,INFPU07042,323
1516194942335,252,NoFileUpload N52_PE7241_PhoneValidation_withAllNullStringAndBlankPhoneNumberInDimension,200,Thread Group_Prod1 1-1,true,799,1,1,252,1,0,INFPU07042,0
1516194942602,252,NoFileUpload N53_PE7241_PhoneValidation_withAllNullStringPhoneNumberInDimension,200,Thread Group_Prod1 1-1,true,828,1,1,252,1,0,INFPU07042,0
1516194942872,252,NoFileUpload N54_PE7241_PhoneValidation_withAllValidPhoneNumberInDimension,200,Thread Group_Prod1 1-1,true,874,1,1,252,1,0,INFPU07042,0
1516194943164,253,NoFileUpload N55_PE7241_PhoneValidation_withValidAndInvalidPhoneNumberInDimension,200,Thread Group_Prod1 1-1,true,864,1,1,253,1,0,INFPU07042,0
1516194943436,751,NoFileUpload N56_PE7241_RequiredValidation__withAllNullStringInDimension,200,Thread Group_Prod1 1-1,true,867,1,1,750,1,0,INFPU07042,249
1516194944206,254,NoFileUpload N57_PE7241_RequiredValidation__withAllValidValuesInDimension,200,Thread Group_Prod1 1-1,true,850,1,1,253,1,0,INFPU07042,0
1516194944515,258,NoFileUpload N58_PE7241_RequiredValidation_withAllblankValuesInDimension ,200,Thread Group_Prod1 1-1,true,864,1,1,258,1,0,INFPU07042,0
1516194944813,253,"NoFileUpload N59_PE7241_RequiredValidation_WithNullString,BlankAndValuesInDimension",200,Thread Group_Prod1 1-1,true,881,1,1,253,1,0,INFPU07042,0
1516194945093,254,NoFileUpload N60_PE7241_RequiredValidation_WithNullStringlAndBlankInDimension,200,Thread Group_Prod1 1-1,true,870,1,1,253,1,0,INFPU07042,0
1516194945368,257,NoFileUpload N61_PE7241_RequiredValidation_WithValidAndInvalidValue,200,Thread Group_Prod1 1-1,true,874,1,1,257,1,0,INFPU07042,0
1516194945655,764,NoFileUpload N62_PE7241_CheckBoxes_UploadMultipleFile,200,Thread Group_Prod1 1-1,true,795,1,1,763,1,0,INFPU07042,254
1516194946452,258,NoFileUpload N63_PE7241_Dimension_CrossSection,200,Thread Group_Prod1 1-1,true,865,1,1,258,1,0,INFPU07042,0
1516194946792,258,NoFileUpload N64_PE7241_MDA_Dimension,200,Thread Group_Prod1 1-1,true,790,1,1,258,1,0,INFPU07042,0
1516194947079,2339,FileUpload F54_PE-7257_AllValidDateAndDoubleValue(Positive scenario),200,Thread Group_Prod1 1-1,true,14231,1,1,2333,1,0,INFPU07042,0
1516194949419,2988,FileUpload F55_PE-7257_AllValidAndInvalidDateAndDoubleValue(Negative scenario),200,Thread Group_Prod1 1-1,true,17815,1,1,2742,1,0,INFPU07042,246
1516194952408,1030,NoFileUpload N65_PE7506_crosssection_with multiple combination for LPALL_399A,200,Thread Group_Prod1 1-1,true,1306,1,1,1029,1,0,INFPU07042,255
1516194953475,265,NoFileUpload N66_PE7506_crosssection_with 3 Dimensions for LPALL_399A,200,Thread Group_Prod1 1-1,true,1257,1,1,265,1,0,INFPU07042,0
1516194953775,269,"NoFileUpload N67_PE7506_crosssection_13LATAM_01"": ""Y""",200,Thread Group_Prod1 1-1,true,1228,1,1,268,1,0,INFPU07042,0
1516194954056,267,"NoFileUpload N68_PE7506_crosssection_ EE_group_13LATAM_01"": ""N""",200,Thread Group_Prod1 1-1,true,1052,1,1,267,1,0,INFPU07042,0
1516194954344,267,NoFileUpload N69_PE7506_crosssection_when  EE_group_13LATAM is not present,200,Thread Group_Prod1 1-1,true,1024,1,1,267,1,0,INFPU07042,0
1516194954644,1032,NoFileUpload N70_PE7506_crosssection_with Dimension for LPALL_399A,200,Thread Group_Prod1 1-1,true,1309,1,1,1032,1,0,INFPU07042,256
1516194955725,275,NoFileUpload N71_PE7506_crosssection_with Dimension for LPALL_399A 1 as Y others as N,200,Thread Group_Prod1 1-1,true,1257,1,1,275,1,0,INFPU07042,0
1516194956010,641,FileUpload F56_PE5415_MultiSheetSuccess,200,Thread Group_Prod1 1-1,true,3597,1,1,640,1,0,INFPU07042,0
1516194956694,1000,FileUpload F57_PE5415_MultiSheetBadRequest_Ignore,500,Thread Group_Prod1 1-1,false,400,1,1,999,1,1,INFPU07042,249
1516194957695,1306,FileUpload F58_PE5415_MultiSheetCorrectRequest,200,Thread Group_Prod1 1-1,true,3470,1,1,1305,1,0,INFPU07042,251
1516194959030,508,FileUpload F59_PE5415_Step1SingleSheetBadReq_Ignore,422,Thread Group_Prod1 1-1,false,1258,1,1,507,1,1,INFPU07042,0
1516194959558,529,FileUpload F60_PE5415_Step1SingleSheetCorrectReq,200,Thread Group_Prod1 1-1,true,4641,1,1,528,1,0,INFPU07042,0
1516194960105,788,FileUpload F61_PE5415_Step3MappingCompanyJson,200,Thread Group_Prod1 1-1,true,1587,1,1,787,1,0,INFPU07042,257
1516194960915,541,FileUpload F62_PE5415_Step3MappingCompanyExcel,200,Thread Group_Prod1 1-1,true,1601,1,1,541,1,0,INFPU07042,0
1516194961499,679,FileUpload F63_PE5415_Step3MappingColumnExcel,200,Thread Group_Prod1 1-1,true,4442,1,1,678,1,0,INFPU07042,0
1516194962213,830,FileUpload F64_PE5415_Step3MappingColumnJson,200,Thread Group_Prod1 1-1,true,4394,1,1,828,1,0,INFPU07042,252
1516194963056,372,FileUpload F65_PE5415_Step3MappingColumnJsonWithoutCountry,200,Thread Group_Prod1 1-1,true,2853,1,1,371,1,0,INFPU07042,0
1516194963464,271,FileUpload F66_PE5415_Step3MappingColumnJsonWithCountry,200,Thread Group_Prod1 1-1,true,1587,1,1,271,1,0,INFPU07042,0
1516194963780,261,NoFileUpload N72_ PE5668 T1_Chk response with Vivek for [null],500,Thread Group_Prod1 1-1,false,404,1,1,261,1,1,INFPU07042,0
1516194964063,740,NoFileUpload N80_PE7989_Req_NonNumericData_withAllwrongcolumn_MDA,200,Thread Group_Prod1 1-1,true,664,1,1,739,1,0,INFPU07042,244
1516194964819,252,NoFileUpload N81_PE7989_Req_NonNumericData_withAllrightcolumn_MDA,200,Thread Group_Prod1 1-1,true,838,1,1,252,1,0,INFPU07042,0
1516194965092,249,NoFileUpload N82_PE7989_Req_NonNumericData_with1wrongcolumn_MDA,200,Thread Group_Prod1 1-1,true,841,1,1,248,1,0,INFPU07042,0
1516194965358,248,NoFileUpload N83_PE7989_uploadMultipleFile,200,Thread Group_Prod1 1-1,true,827,1,1,248,1,0,INFPU07042,0
1516194965624,255,NoFileUpload N84_400 and 500 Error_crossSectionChecks,200,Thread Group_Prod1 1-1,true,605,1,1,254,1,0,INFPU07042,0
1516194965921,252,NoFileUpload N85_400 and 500 Error_crossSectionChecks,200,Thread Group_Prod1 1-1,true,634,1,1,252,1,0,INFPU07042,0
1516194966201,774,NoFileUpload N86_400 and 500 Error_crossSectionChecks,200,Thread Group_Prod1 1-1,true,633,1,1,773,1,0,INFPU07042,254
1516194967013,260,NoFileUpload N87_400 and 500 Error_crossSectionChecks,200,Thread Group_Prod1 1-1,true,487,1,1,260,1,0,INFPU07042,0
1516194967308,261,NoFileUpload N88_400 and 500 Error_crossSectionChecks,200,Thread Group_Prod1 1-1,true,605,1,1,260,1,0,INFPU07042,0
