{  
   "entities":[  
      {  
         "contextData":{  
            "campaignId":"59ca2a66c1e15a565af88407",
            "companyId":"59c3eac0fc22fa6928d09aa4",
            "companyName":"Exadel",
            "sectionId":"pe3707Section",
            "grpCode":"",
            "cpyCode":"",
            "ctryCode":"PL",
            "orgSize":{  
               "59c3eac0fc22fa6928d09aa4":null
            },
            "uniqueIdColumnCode":"YOUR_EEID",
            "industry":{  
               "superSector":"CG",
               "sector":"101",
               "subSector":"2670"
            }
         },
         "sections":[  
            {  
               "sectionCode":"incumbent_data",
               "sectionStructure":{  
                  "columns":[  
                     {  
                        "code":"question1",
                        "displayLabel":"Question 1 display label",
                        "dataType":"int",
                        "dimensions":[  
                           "ques1",
                           "ques2",
                           "ques3"
                        ],
                        "questionType":"integer",
                        "validations":[  
                           {  
                              "mda":"clear_value",
                              "message":"",
                              "expression":"",
                              "validationType":"rangeValidationRefTable",
                              "referenceTableName":"xyz",
                              "_id":"59df5c44527b5be1ac230224",
                              "category":"input_data",
                              "dependentColumns":[  

                              ]
                           }
                        ]
                     },
                     {  
                        "code":"question2",
                        "displayLabel":"Question 2 display label",
                        "dataType":"int",
                        "questionType":"integer",
                        "validations":[  
                           {  
                              "mda":"clear_value",
                              "message":"",
                              "expression":"",
                              "validationType":"rangeValidationRefTable",
                              "referenceTableName":"ref_table_name",
                              "_id":"59df5c44527b5be1ac230224",
                              "category":"input_data",
                              "dependentColumns":[  

                              ]
                           }
                        ]
                     }
                  ]
               },
               "data":[  
                  {  
                     "$$id":"58d0360baa2ae02cc4723431",
                     "YOUR_EEID":"1",
                     "question1":{  
                        "ques1":"10",
                        "ques2":"20",
                        "ques3":"30"
                     },
                     "question2":"20",
                     "EMP006":"EMP_006"
                  },
                  {  
                     "$$id":"58d03653aa2ae02cc4723432",
                     "YOUR_EEID":"2",
                     "question1":"15",
                     "question2":"20",
                     "EMP006":"EMP_006"
                  }
               ]
            },
            {  
               "sectionCode":"company_data",
               "sectionStructure":{  
                  "columns":[  
                     {  
                        "code":"question1",
                        "displayLabel":"Question 1 display label",
                        "dataType":"int",
                        "questionType":"integer",
                        "validations":[  
                           {  
                              "mda":"clear_value",
                              "message":"",
                              "expression":"",
                              "validationType":"rangeValidationRefTable",
                              "referenceTableName":"ref_table_name",
                              "_id":"59df5c44527b5be1ac230224",
                              "category":"input_data",
                              "dependentColumns":[  

                              ]
                           }
                        ]
                     },
                     {  
                        "code":"question2",
                        "displayLabel":"Question 2 display label",
                        "dataType":"int",
                        "questionType":"integer",
                        "validations":[  
                           {  
                              "mda":"exclude_row",
                              "message":"",
                              "expression":"",
                              "validationType":"rangeValidationRefTable",
                              "referenceTableName":"ref_table_name",
                              "_id":"59df5c44527b5be1ac230224",
                              "category":"input_data",
                              "dependentColumns":[  

                              ]
                           }
                        ]
                     }
                  ]
               },
               "data":[  
                  {  
                     "$$id":"58d0360baa2ae02cc4723431",
                     "YOUR_EEID":"3",
                     "question1":"12",
                     "question2":"20",
                     "EMP006":"EMP_006"
                  },
                  {  
                     "$$id":"58d03653aa2ae02cc4723432",
                     "YOUR_EEID":"4",
                     "question1":"15",
                     "question2":"16",
                     "EMP006":"EMP_006"
                  }
               ]
            }
         ]
      }
   ]
}