{
  "entities": [
    {
      "contextData": {
        "campaignId": "5a54dcb6d4e7a22fb3770bcc",
        "companyId": "5a5274e01b7127114754c448",
        "grpCode": "",
        "cpyCode": "",
        "ctryCode": "US",
        "orgSize": "",
        "industry": {
          "superSector": "LS",
          "sector": "107",
          "subSector": "1090"
        }
      },
      "sections": [
        {
          "sectionCode": "SeqCheckGrid",
          "sectionStructure": {
            "columns": [
              {
                "code": "SeqCheckBase",
                "dataType": "int",
                "questionType": "integer",
                "validations": [
                  {
                    "validationType": "sequentialCheck",
                    "mda": "clear_value",
                    "_id": "5a53ce2d7b876b2f9d0c6c2c",
                    "category": "input_data",
                    "dependentColumns": [
                      "SeqCheckBase",
                      "SeqCheck1",
                      "SeqCheck2",
                      "SeqCheck3"
                    ]
                  }
                ]
              },
              {
                "code": "SeqCheck1",
                "dataType": "int",
                "questionType": "integer",
                "validations": []
              },
              {
                "code": "SeqCheck2",
                "dataType": "int",
                "questionType": "integer",
                "validations": []
              },
              {
                "code": "SeqCheck3",
                "dataType": "int",
                "questionType": "integer",
                "validations": []
              }
            ]
          },
          "data": [
            {
              "$$id": "5a54e0381616a982992121ad",
              "YOUR_OTHER": "",
              "YOUR_GRADE": "",
              "YOUR_LEVEL": "",
              "YOUR_CODE": "",
              "YOUR_TITLE": "",
              "POS_CLASS_ADJUST": null,
              "POS_CLASS": null,
              "POS_TITLE": null,
              "POS_CODE": null,
              "ECONOMIC_VALUE": null,
              "SeqCheck3": "4",
              "SeqCheck2": "3",
              "SeqCheck1": "2",
              "SeqCheckBase": "1"
            },
            {
              "$$id": "5a54e0381616a982992121ae",
              "YOUR_OTHER": "",
              "YOUR_GRADE": "",
              "YOUR_LEVEL": "",
              "YOUR_CODE": "",
              "YOUR_TITLE": "",
              "POS_CLASS_ADJUST": null,
              "POS_CLASS": null,
              "POS_TITLE": null,
              "POS_CODE": null,
              "ECONOMIC_VALUE": null,
              "SeqCheck3": "4",
              "SeqCheck2": "4",
              "SeqCheck1": "5",
              "SeqCheckBase": null
            },
            {
              "$$id": "5a54e0381616a982992121af",
              "YOUR_OTHER": "",
              "YOUR_GRADE": "",
              "YOUR_LEVEL": "",
              "YOUR_CODE": "",
              "YOUR_TITLE": "",
              "POS_CLASS_ADJUST": null,
              "POS_CLASS": null,
              "POS_TITLE": null,
              "POS_CODE": null,
              "ECONOMIC_VALUE": null,
              "SeqCheck3": null,
              "SeqCheck2": null,
              "SeqCheck1": "2",
              "SeqCheckBase": null
            },
            {
              "$$id": "5a54e0381616a982992121b0",
              "YOUR_OTHER": "",
              "YOUR_GRADE": "",
              "YOUR_LEVEL": "",
              "YOUR_CODE": "",
              "YOUR_TITLE": "",
              "POS_CLASS_ADJUST": null,
              "POS_CLASS": null,
              "POS_TITLE": null,
              "POS_CODE": null,
              "ECONOMIC_VALUE": null,
              "SeqCheck3": "7",
              "SeqCheck2": "5",
              "SeqCheck1": null,
              "SeqCheckBase": "10"
            },
            {
              "$$id": "5a54e0381616a982992121b1",
              "YOUR_OTHER": "",
              "YOUR_GRADE": "",
              "YOUR_LEVEL": "",
              "YOUR_CODE": "",
              "YOUR_TITLE": "",
              "POS_CLASS_ADJUST": null,
              "POS_CLASS": null,
              "POS_TITLE": null,
              "POS_CODE": null,
              "ECONOMIC_VALUE": null,
              "SeqCheck3": null,
              "SeqCheck2": null,
              "SeqCheck1": "1",
              "SeqCheckBase": "2"
            }
          ]
        },
        {
          "sectionCode": "SeqCheckForm",
          "sectionStructure": {
            "columns": [
              {
                "code": "SeqCheckBase",
                "dataType": "int",
                "questionType": "integer",
                "validations": [
                  {
                    "validationType": "sequentialCheck",
                    "mda": "clear_value",
                    "_id": "5a53ce2d7b876b2f9d0c6c2c",
                    "category": "input_data",
                    "dependentColumns": [
                      "SeqCheckBase",
                      "SeqCheck1",
                      "SeqCheck2",
                      "SeqCheck3"
                    ]
                  }
                ]
              },
              {
                "code": "SeqCheck1",
                "dataType": "int",
                "questionType": "integer",
                "validations": []
              },
              {
                "code": "SeqCheck2",
                "dataType": "int",
                "questionType": "integer",
                "validations": []
              },
              {
                "code": "SeqCheck3",
                "dataType": "int",
                "questionType": "integer",
                "validations": []
              }
            ]
          },
          "data": [
            {
              "$$id": "5a54e01d1616a98299212196",
              "SeqCheck3": null,
              "SeqCheckBase": null,
              "SeqCheck2": "4",
              "SeqCheck1": "5"
            }
          ]
        }
      ]
    }
  ]
}